<?xml version="1.0" encoding="UTF-8" standalone="no"?>
<!-- Created with Inkscape (http://www.inkscape.org/) -->

<svg
   xmlns:dc="http://purl.org/dc/elements/1.1/"
   xmlns:cc="http://creativecommons.org/ns#"
   xmlns:rdf="http://www.w3.org/1999/02/22-rdf-syntax-ns#"
   xmlns:svg="http://www.w3.org/2000/svg"
   xmlns="http://www.w3.org/2000/svg"
   xmlns:sodipodi="http://sodipodi.sourceforge.net/DTD/sodipodi-0.dtd"
   xmlns:inkscape="http://www.inkscape.org/namespaces/inkscape"
   width="210mm"
   height="297mm"
   viewBox="0 0 744.09448819 1052.3622047"
   id="svg4179"
   version="1.1"
   inkscape:version="0.91 r13725"
   inkscape:export-filename="/home/diane/path20.png"
   inkscape:export-xdpi="90"
   inkscape:export-ydpi="90"
   sodipodi:docname="spoon with bow.svg">
  <defs
     id="defs4181" />
  <sodipodi:namedview
     id="base"
     pagecolor="#ffffff"
     bordercolor="#666666"
     borderopacity="1.0"
     inkscape:pageopacity="0.0"
     inkscape:pageshadow="2"
     inkscape:zoom="0.35"
     inkscape:cx="-119.24929"
     inkscape:cy="634.28571"
     inkscape:document-units="px"
     inkscape:current-layer="layer1"
     showgrid="false"
     inkscape:window-width="1366"
     inkscape:window-height="713"
     inkscape:window-x="0"
     inkscape:window-y="27"
     inkscape:window-maximized="1" />
  <metadata
     id="metadata4184">
    <rdf:RDF>
      <cc:Work
         rdf:about="">
        <dc:format>image/svg+xml</dc:format>
        <dc:type
           rdf:resource="http://purl.org/dc/dcmitype/StillImage" />
        <dc:title></dc:title>
      </cc:Work>
    </rdf:RDF>
  </metadata>
  <g
     inkscape:label="Layer 1"
     inkscape:groupmode="layer"
     id="layer1">
    <path
       inkscape:connector-curvature="0"
       id="path20"
       style="fill:#231f20;fill-opacity:1;fill-rule:nonzero;stroke:none"
       d="m 292.5331,332.80216 c 0,0 -97.57379,23.74739 -161.23319,-27.63888 C 67.645045,253.78266 86.11534,173.20843 87.988441,166.77598 89.856887,160.33794 127.92904,88.379462 201.57011,92.310156 c 73.64977,3.927403 114.95189,76.790424 117.60938,86.092754 2.66292,9.29971 18.59102,38.92238 14.74708,76.46188 -3.84293,37.52923 -11.83644,53.87123 -11.83644,53.87123 0,0 372.94567,405.71525 365.24289,410.34879 -7.69732,4.63096 -17.7748,32.49575 -17.7748,32.49575 L 292.5331,332.80216" />
    <g
       transform="matrix(0.72269963,-0.69116224,0.69116224,0.72269963,50.061726,414.96567)"
       id="g106"
       style="fill:#ff0000;stroke:#800000">
      <path
         style="fill:#ff0000;stroke:#800000"
         inkscape:connector-curvature="0"
         id="path108"
         d="m 339,319.8 c -15.4,-8.1 -30.1,-17.4 -42.7,-28.9 0.1,9 -1.6,17.9 -1.2,26.9 0.5,9.6 1.5,19 3.4,28.4 0.1,0.7 -0.9,0.9 -1,0.2 -4.9,-17.7 -10,-40.3 -5.3,-58.4 0.1,-0.3 0.2,-0.6 0.3,-0.8 -8.6,-8.4 -16,-18 -21.8,-29.1 -3.2,1.9 -6.8,2.7 -10.6,3.1 2.5,40.2 12.7,78.3 22.9,117.2 5.3,20 10.6,40 16,60 2.7,9.8 4.3,21.9 10.2,30.3 4.1,5.8 8.2,10.7 11.1,17.1 27.7,-4.1 50.8,-16.6 74,-31.8 -16.5,-45.6 -35.6,-89.2 -55.2,-133.5 0,-0.3 -0.1,-0.5 -0.1,-0.7 z" />
      <path
         style="fill:#ff0000;stroke:#800000"
         inkscape:connector-curvature="0"
         id="path110"
         d="m 272.4,249.8 c 1.1,-7.3 1.7,-14.8 1.9,-22.3 0.2,-10.1 -0.4,-20.9 -13.5,-21.9 -7.9,-0.6 -15.8,-0.8 -23.7,-0.1 -9.8,0.9 -12.8,5.5 -14.2,15.1 -0.8,5.2 -1.3,10.4 -1.9,15.7 -0.2,7.7 0.3,19.4 8.1,21 6.5,1.4 13.4,0.7 20.1,0.6 6.7,-0.1 21.7,1.8 23.2,-8.1 z" />
      <path
         style="fill:#ff0000;stroke:#800000"
         inkscape:connector-curvature="0"
         id="path112"
         d="m 442.2,176.1 c -1,-10.4 2.4,-41.3 -17.3,-34.8 -9.4,3.1 -17.5,8.5 -27.3,10.6 -43.2,9.6 -84.1,35.7 -121.6,58.6 0.9,2.5 1.3,5.4 1.4,8.4 0.1,0 0.2,-0.1 0.4,-0.1 9.4,-0.6 18.9,-0.2 28.2,-2.5 8.2,-2 15.9,-5 23.9,-7.8 0.7,-0.2 1.1,0.9 0.5,1.3 -14.9,8.9 -35.2,14.5 -52.5,14.4 -0.2,0 -0.4,0 -0.5,-0.1 -0.1,2.8 -0.3,5.5 -0.4,7.4 -0.1,2.1 0.1,5 0.1,8.2 12.8,2 26,9 36.3,16.6 6.3,4.6 16.7,10.7 13.3,19.9 -6,16.3 -42.1,-14 -51.7,-22.8 -0.3,0.7 -0.7,1.4 -1.2,2 0,0.1 0.1,0.1 0.1,0.1 21.9,43.9 66.9,62 109.6,80.7 11.8,5.2 29.4,16.7 40.2,3.6 7.9,-9.6 15.8,-19.4 21.3,-30.6 11.4,-23.3 14.5,-48 9.6,-73.4 -3.8,-19.9 -10.4,-39.5 -12.4,-59.7 z" />
      <path
         style="fill:#ff0000;stroke:#800000"
         inkscape:connector-curvature="0"
         id="path114"
         d="m 319,276.3 c 4.3,-0.1 8.2,-5.1 2.8,-8.6 -13.3,-12 -28.7,-17.7 -44.8,-24.4 -0.1,2.7 -0.4,5.5 -1.1,7.9 6.9,5.3 13.4,11 20.8,15.6 4.7,3 9.5,5.9 14.8,7.7 2.4,0.9 4.9,1.6 7.5,1.8 z" />
      <path
         style="fill:#ff0000;stroke:#800000"
         inkscape:connector-curvature="0"
         id="path116"
         d="m 227.2,260.4 c -3.6,6.9 -7.8,13.1 -12.4,18.8 0.1,0.2 0.1,0.4 0.1,0.6 2.3,23.1 -10.5,45.9 -21.4,65.4 -0.4,0.7 -1.3,0 -1,-0.6 9.7,-20.1 16.8,-38.3 17.9,-60.3 -13.9,15.2 -31.4,26.3 -50.2,35.2 0,0 0,0.1 0,0.1 -1.6,16.6 -12.4,32.6 -19.4,47.4 -9.1,19.1 -17.7,38.7 -27.5,57.5 -1.2,2.3 -13.9,20.3 -12.1,22 7.9,7.2 18.5,11.9 28.4,15.7 19.9,7.7 39.9,10.7 61,12.2 -0.1,-0.5 0,-1 0.4,-1.4 12.2,-13.1 15.3,-33.6 20.4,-50.4 4.9,-16.1 10,-32.2 13.9,-48.6 4.5,-19.2 7.3,-38.7 8.3,-58.3 0.8,-17.3 2.4,-36.7 0.4,-54 -2.4,-0.2 -4.8,-0.5 -6.8,-1.3 z" />
      <path
         style="fill:#ff0000;stroke:#800000"
         inkscape:connector-curvature="0"
         id="path118"
         d="m 225.2,259.4 c -1.1,-0.7 -2.1,-1.5 -2.8,-2.6 -0.2,-0.3 -0.3,-0.6 -0.5,-0.9 -7.5,5.8 -57,36 -59.8,15.9 -1.5,-11.2 10,-17.9 18.9,-21.3 11.3,-4.3 23.5,-9.2 35.7,-6.9 -0.3,-4.7 -0.5,-10.1 -0.3,-15.6 -21.2,-1.7 -42.8,-8 -62.7,-15.2 -1.1,-0.4 -0.8,-2.3 0.4,-1.9 20.7,7.4 40.8,10 62.6,11.7 0.5,-5.4 1.5,-10.6 3.5,-14.8 0.3,-0.6 0.6,-1.2 1,-1.7 -16.6,-15.7 -35.9,-28.5 -58.3,-34 -11.1,-2.7 -22.3,-5 -33.1,-8.9 -10.1,-3.6 -20.3,-7.4 -31.1,-8.2 -7.2,-0.5 -27.6,-7.4 -33,-3.6 -9.4,6.6 -13.4,16.5 -15.9,27.3 -5.1,21.8 -8.6,44.2 -10.2,66.6 -1.9,28.2 2.2,52.6 20.1,75.3 8.7,11 16.2,24.2 33.3,18.6 9.3,-3.1 18.5,-6.2 27.8,-9.1 20.5,-6.5 42.6,-11.6 60.1,-24.6 17.4,-13.3 32,-28 44.3,-46.1 z" />
      <path
         style="fill:#ff0000;stroke:#800000"
         inkscape:connector-curvature="0"
         id="path120"
         d="m 189.1,252.3 c -6.8,2.5 -18,5.7 -21.5,12.9 -5.9,12 15.3,6.1 17.4,5.5 4.5,-1.4 9,-2.9 13.2,-4.9 7.6,-3.7 14.5,-8.1 21.1,-13.5 0.2,-0.2 0.4,-0.3 0.7,-0.3 -0.7,-1.7 -1.2,-3.5 -1.5,-5.2 -10.6,0.1 -19.6,1.9 -29.4,5.5 z" />
      <path
         style="fill:#ff0000;stroke:#800000"
         inkscape:connector-curvature="0"
         id="path122"
         d="m 445.8,171.7 c -1.7,-16.9 2.7,-38.5 -21.8,-34.1 -3.8,0.7 -7.7,3 -11.1,4.7 -8.4,4.2 -16.9,6 -26,8.1 -11.7,2.8 -22.9,8.5 -33.8,13.5 -27.2,12.7 -53.5,27.3 -78.5,43.9 -0.3,-0.4 -0.6,-0.7 -0.9,-1 -7.7,-7.5 -19.2,-6.8 -29.3,-6.9 -6.3,-0.1 -14.8,-0.4 -20.3,3.3 -15.4,-16.1 -34.4,-26.5 -55.7,-32.8 -27.3,-8.2 -54.9,-14.6 -82.7,-20.5 -11.3,-2.4 -15.4,-7.3 -25.8,0 -6.5,4.6 -9.7,13 -12.2,20.1 -8.6,24.9 -10.6,53.8 -12,80 -1.5,27.7 5.3,49.9 21.4,72.4 5.4,7.5 11,16.4 18.8,21.7 7.6,5.2 20.2,-1.1 27.5,-3.4 18,-5.8 36.7,-12 54.3,-20 -6,21.7 -18.7,42.6 -28.4,62.8 -9.6,20.3 -18,42.7 -32.5,60.1 -0.7,0.8 -0.5,1.7 0.1,2.5 8.9,12 27.1,17.9 40.7,22.7 17.3,6.1 36.8,9.5 55.2,8.5 1.1,-0.1 1.5,-1.1 1.1,-1.9 10.2,-8.1 12.6,-21.3 16,-33.3 5.5,-19.2 11.2,-38.4 16.5,-57.7 5.2,-19.2 8.4,-38.8 10.4,-58.5 1,-9.9 1.4,-19.9 2,-29.8 0.8,-11.5 -1.9,-22.8 -1.8,-34.3 3.1,0 6.1,-0.3 8.4,-0.3 4.3,-0.1 8.8,0.2 13.2,-0.1 -0.6,39.9 11.1,79.5 21.1,117.8 5.2,20 10.5,40 15.9,60 2.1,7.8 3.5,16.4 6.8,23.8 4,9.1 10.8,16.1 15.5,24.8 0.5,0.9 1.4,1.1 2,0.8 28.9,0.6 54,-16.9 77.1,-32.3 1.1,-0.8 0.7,-2.4 -0.3,-2.9 -13,-44.5 -30.6,-90.3 -53,-131.1 16,8.1 32.5,15.1 48.2,22.1 8.6,3.8 18.6,9.4 28.1,5.9 7.1,-2.6 14.8,-16.4 18.9,-22.4 15.4,-22.3 23,-46.7 22,-73.8 -1.1,-28 -12.3,-54.6 -15.1,-82.4 z M 120.7,329.9 c -9.3,3 -18.5,6.1 -27.8,9.1 -17,5.6 -24.5,-7.5 -33.3,-18.6 -17.9,-22.6 -22,-47.1 -20.1,-75.3 1.5,-22.4 5.1,-44.7 10.2,-66.6 2.5,-10.8 6.6,-20.7 15.9,-27.3 5.4,-3.8 25.8,3 33,3.6 10.8,0.8 21,4.7 31.1,8.2 10.8,3.8 22,6.1 33.1,8.9 22.4,5.5 41.8,18.3 58.3,34 -0.4,0.5 -0.7,1.1 -1,1.7 -2,4.2 -3,9.4 -3.5,14.8 0.1,0 0.3,0 0.4,0 3.2,0.2 3.5,5.7 0.1,5.4 -0.3,0 -0.6,-0.1 -0.8,-0.1 -0.2,5.5 0,10.9 0.3,15.6 -12.2,-2.3 -24.4,2.6 -35.7,6.9 -9,3.4 -20.5,10.1 -18.9,21.3 2.8,20.2 52.3,-10.1 59.8,-15.9 0.2,0.3 0.3,0.6 0.5,0.9 0.7,1.1 1.7,2 2.8,2.6 -12.3,18.1 -26.9,32.8 -44.4,45.9 -17.5,13.3 -39.6,18.4 -60,24.9 z m 99.2,-78 c -0.2,0.1 -0.4,0.2 -0.7,0.3 -6.6,5.4 -13.4,9.8 -21.1,13.5 -4.2,2.1 -8.7,3.5 -13.2,4.9 -2,0.6 -23.2,6.5 -17.4,-5.5 3.5,-7.2 14.6,-10.3 21.5,-12.9 9.8,-3.6 18.8,-5.4 29.3,-5.6 0.4,1.9 0.9,3.6 1.6,5.3 z m 13.6,63.7 c -0.9,19.7 -3.8,39.2 -8.3,58.3 -3.8,16.4 -9,32.5 -13.9,48.6 -5.1,16.7 -8.2,37.2 -20.4,50.4 -0.4,0.4 -0.4,0.9 -0.4,1.4 -21.1,-1.6 -41.1,-4.6 -61,-12.2 -9.9,-3.8 -20.5,-8.5 -28.4,-15.7 -1.8,-1.7 10.9,-19.7 12.1,-22 9.9,-18.8 18.4,-38.3 27.5,-57.5 7.1,-14.7 17.8,-30.8 19.4,-47.4 0,-0.1 0,-0.1 0,-0.1 18.8,-8.9 36.3,-20 50.2,-35.2 0.1,-1.5 0.1,-3.1 0.1,-4.7 0,-2.8 3.4,-2.5 4.2,-0.3 4.7,-5.7 8.8,-11.9 12.4,-18.8 2,0.8 4.4,1.1 6.7,1.2 2.1,17.3 0.6,36.7 -0.2,54 z m 15.6,-57.7 c -6.6,0.1 -13.5,0.8 -20.1,-0.6 -7.7,-1.6 -8.3,-13.4 -8.1,-21 0.5,-5.2 1.1,-10.5 1.9,-15.7 1.4,-9.6 4.4,-14.1 14.2,-15.1 7.9,-0.8 15.8,-0.6 23.7,0.1 13.1,1.1 13.7,11.8 13.5,21.9 -0.2,7.4 -0.8,14.9 -1.9,22.3 -1.4,9.9 -16.4,8 -23.2,8.1 z m 145.2,196 c -23.2,15.2 -46.2,27.7 -74,31.8 -2.9,-6.4 -7,-11.3 -11.1,-17.1 -5.9,-8.4 -7.6,-20.5 -10.2,-30.3 -5.4,-20 -10.7,-40 -16,-60 -10.2,-38.8 -20.4,-76.9 -22.9,-117.2 3.7,-0.4 7.3,-1.2 10.6,-3.1 5.8,11.1 13.2,20.7 21.8,29.1 1.1,-1.5 3.7,-0.4 3.8,1.6 0,0.7 0.1,1.4 0.1,2 12.6,11.5 27.3,20.8 42.7,28.9 0,0.2 0.1,0.4 0.1,0.6 19.6,44.5 38.6,88.1 55.1,133.7 z m 50.8,-144.6 c -5.5,11.2 -13.4,21.1 -21.3,30.6 -10.8,13.1 -28.3,1.6 -40.2,-3.6 -42.7,-18.8 -87.7,-36.8 -109.6,-80.7 0,-0.1 -0.1,-0.1 -0.1,-0.1 0.5,-0.6 0.8,-1.3 1.2,-2 9.6,8.8 45.7,39.1 51.7,22.8 3.4,-9.2 -7.1,-15.3 -13.3,-19.9 -10.3,-7.6 -23.5,-14.6 -36.3,-16.6 0,-3.2 -0.2,-6.1 -0.1,-8.2 0.1,-2 0.3,-4.6 0.4,-7.4 -2.6,-0.5 -2.7,-4.7 0,-5.2 -0.1,-3 -0.5,-6 -1.4,-8.4 37.5,-22.9 78.4,-49.1 121.6,-58.6 9.8,-2.2 17.9,-7.5 27.3,-10.6 19.7,-6.5 16.3,24.4 17.3,34.8 2,20.3 8.6,39.9 12.5,59.8 4.8,25.3 1.7,50.1 -9.7,73.3 z M 275.9,251.1 c 0.7,-2.4 1,-5.1 1.1,-7.9 16.1,6.8 31.5,12.4 44.8,24.4 5.4,3.5 1.5,8.5 -2.8,8.6 -2.6,-0.2 -5.1,-0.9 -7.5,-1.9 -5.3,-1.8 -10.1,-4.7 -14.8,-7.7 -7.3,-4.5 -13.9,-10.2 -20.8,-15.5 z" />
      <path
         style="fill:#ff0000;stroke:#800000"
         inkscape:connector-curvature="0"
         id="path124"
         d="m 193.5,345.2 c 10.9,-19.5 23.7,-42.3 21.4,-65.4 0,-0.2 -0.1,-0.4 -0.1,-0.6 -1.4,1.7 -2.8,3.4 -4.3,5 -1.1,22 -8.2,40.2 -17.9,60.3 -0.4,0.7 0.5,1.4 0.9,0.7 z" />
      <path
         style="fill:#ff0000;stroke:#800000"
         inkscape:connector-curvature="0"
         id="path126"
         d="m 210.6,279.6 c 0,1.6 -0.1,3.2 -0.1,4.7 1.5,-1.6 2.9,-3.3 4.3,-5 -0.8,-2.2 -4.2,-2.6 -4.2,0.3 z" />
      <path
         style="fill:#ff0000;stroke:#800000"
         inkscape:connector-curvature="0"
         id="path128"
         d="m 297.5,346.4 c 0.2,0.7 1.2,0.5 1,-0.2 -1.8,-9.4 -2.9,-18.8 -3.4,-28.4 -0.4,-9 1.4,-17.9 1.2,-26.9 -1.3,-1.2 -2.6,-2.4 -3.8,-3.6 -0.1,0.2 -0.3,0.5 -0.3,0.8 -4.7,18 0.4,40.6 5.3,58.3 z" />
      <path
         style="fill:#ff0000;stroke:#800000"
         inkscape:connector-curvature="0"
         id="path130"
         d="m 296.3,288.8 c -0.1,-2 -2.7,-3.1 -3.8,-1.6 1.3,1.2 2.5,2.4 3.8,3.6 0,-0.6 0,-1.3 0,-2 z" />
      <path
         style="fill:#ff0000;stroke:#800000"
         inkscape:connector-curvature="0"
         id="path132"
         d="m 330.4,209.9 c 0.6,-0.4 0.2,-1.5 -0.5,-1.3 -7.9,2.8 -15.7,5.7 -23.9,7.8 -9.3,2.3 -18.7,1.9 -28.2,2.5 -0.1,0 -0.3,0 -0.4,0.1 0.1,1.8 0,3.5 0,5.2 0.2,0 0.3,0.1 0.5,0.1 17.3,0.1 37.6,-5.5 52.5,-14.4 z" />
      <path
         style="fill:#ff0000;stroke:#800000"
         inkscape:connector-curvature="0"
         id="path134"
         d="m 277.4,219 c -2.8,0.5 -2.7,4.7 0,5.2 0.1,-1.7 0.1,-3.5 0,-5.2 z" />
      <path
         style="fill:#ff0000;stroke:#800000"
         inkscape:connector-curvature="0"
         id="path136"
         d="m 153.7,212.7 c 19.8,7.2 41.5,13.6 62.7,15.2 0.1,-1.8 0.2,-3.6 0.3,-5.4 -21.7,-1.7 -41.8,-4.3 -62.6,-11.7 -1.2,-0.4 -1.5,1.5 -0.4,1.9 z" />
      <path
         style="fill:#ff0000;stroke:#800000"
         inkscape:connector-curvature="0"
         id="path138"
         d="m 217.2,228 c 3.5,0.3 3.1,-5.1 -0.1,-5.4 -0.1,0 -0.3,0 -0.4,0 -0.2,1.8 -0.3,3.6 -0.3,5.4 0.3,0 0.5,0 0.8,0 z" />
    </g>
    <flowRoot
       xml:space="preserve"
       id="flowRoot4771"
       style="fill:black;stroke:none;stroke-opacity:1;stroke-width:1px;stroke-linejoin:miter;stroke-linecap:butt;fill-opacity:1;font-family:sans-serif;font-style:normal;font-weight:normal;font-size:40px;line-height:125%;letter-spacing:0px;word-spacing:0px"><flowRegion
         id="flowRegion4773"><rect
           id="rect4775"
           width="542.85712"
           height="82.85714"
           x="17.142857"
           y="863.79077" /></flowRegion><flowPara
         id="flowPara4777"></flowPara></flowRoot>    <flowRoot
       xml:space="preserve"
       id="flowRoot4779"
       style="font-style:normal;font-weight:normal;font-size:40px;line-height:125%;font-family:sans-serif;letter-spacing:0px;word-spacing:0px;fill:#000000;fill-opacity:1;stroke:none;stroke-width:1px;stroke-linecap:butt;stroke-linejoin:miter;stroke-opacity:1"
       transform="translate(-177.14286,14.285714)"><flowRegion
         id="flowRegion4781"><rect
           id="rect4783"
           width="1065.7144"
           height="214.28572"
           x="51.42857"
           y="-130.49493" /></flowRegion><flowPara
         id="flowPara4785">Spoon: https://www.vecteezy.com/members/jonnyc4</flowPara><flowPara
         id="flowPara4787">Bow: https://www.vecteezy.com/members/lavarmsg</flowPara></flowRoot>  </g>
</svg>
